%YAML 1.1
%TAG !u! tag:unity3d.com,2011:
--- !u!1045 &1
EditorBuildSettings:
  m_ObjectHideFlags: 0
  serializedVersion: 2
  m_Scenes:
  - enabled: 1
    path: Assets/Scenes/Home.unity
    guid: cc8bffd7662a8f348b330cbcb54bd4f8
  - enabled: 1
    path: Assets/Scenes/Editor.unity
    guid: 005c502cb45c2d844b4efd32ae156aa2
  - enabled: 1
    path: Assets/Scenes/Test1.unity
    guid: d72f126ac0baa4c88baf91f8cf1f588e
  - enabled: 1
    path: Assets/Scenes/Controls.unity
    guid: 9db4c9acf0417c34bb094f7a2f5d6d6d
  - enabled: 1
    path: Assets/Scenes/1.unity
    guid: 9ba3e36def6eb5e40b39deb93f65c037
  - enabled: 1
    path: Assets/Scenes/2.unity
    guid: 1d361b78c5f0c184c9a2f0985323612f
  - enabled: 1
    path: Assets/Scenes/3.unity
    guid: 13ff7eba926daae4d96240f762227fdc
  - enabled: 1
    path: Assets/Scenes/4.unity
    guid: c3849ff05f217fc4caafea9a0232a6c1
  - enabled: 1
    path: Assets/Scenes/5.unity
    guid: 6a81b24223194d44a8a1716b8e01f13b
  - enabled: 1
    path: Assets/Scenes/6.unity
    guid: 79ee3eaf81eb38743b3794f5364ce81f
  - enabled: 1
    path: Assets/Scenes/7.unity
    guid: 1f19301ef9a99924f968a1f45d8aff7f
  - enabled: 1
    path: Assets/Scenes/8.unity
    guid: 4279b94fd55b37748bc7dec5a266d47e
  - enabled: 1
    path: Assets/Scenes/9.unity
    guid: cc42dc362e1aa604f83127d7198d2447
  - enabled: 1
    path: Assets/Scenes/10.unity
    guid: dfc10bc82c178b94ab66e0d21677742f
  - enabled: 1
    path: Assets/Scenes/End.unity
    guid: c2ae2304166e9bf4a93678dff7463be4
  m_configObjects: {}
